%YAML 1.1
%TAG !u! tag:unity3d.com,2011:
--- !u!1001 &5108293934666109129
PrefabInstance:
  m_ObjectHideFlags: 0
  serializedVersion: 2
  m_Modification:
    m_TransformParent: {fileID: 0}
    m_Modifications:
    - target: {fileID: 6440610394270872771, guid: 0c0b603d87f544f2993d499ff94f5c98,
        type: 3}
      propertyPath: m_Name
      value: BassSequencer03
      objectReference: {fileID: 0}
    - target: {fileID: 553858045343083173, guid: 0c0b603d87f544f2993d499ff94f5c98,
        type: 3}
      propertyPath: m_LocalPosition.x
      value: 0
      objectReference: {fileID: 0}
    - target: {fileID: 553858045343083173, guid: 0c0b603d87f544f2993d499ff94f5c98,
        type: 3}
      propertyPath: m_LocalPosition.y
      value: 0
      objectReference: {fileID: 0}
    - target: {fileID: 553858045343083173, guid: 0c0b603d87f544f2993d499ff94f5c98,
        type: 3}
      propertyPath: m_LocalPosition.z
      value: 0
      objectReference: {fileID: 0}
    - target: {fileID: 553858045343083173, guid: 0c0b603d87f544f2993d499ff94f5c98,
        type: 3}
      propertyPath: m_LocalRotation.x
      value: 0
      objectReference: {fileID: 0}
    - target: {fileID: 553858045343083173, guid: 0c0b603d87f544f2993d499ff94f5c98,
        type: 3}
      propertyPath: m_LocalRotation.y
      value: 0
      objectReference: {fileID: 0}
    - target: {fileID: 553858045343083173, guid: 0c0b603d87f544f2993d499ff94f5c98,
        type: 3}
      propertyPath: m_LocalRotation.z
      value: 0
      objectReference: {fileID: 0}
    - target: {fileID: 553858045343083173, guid: 0c0b603d87f544f2993d499ff94f5c98,
        type: 3}
      propertyPath: m_LocalRotation.w
      value: 1
      objectReference: {fileID: 0}
    - target: {fileID: 553858045343083173, guid: 0c0b603d87f544f2993d499ff94f5c98,
        type: 3}
      propertyPath: m_RootOrder
      value: 0
      objectReference: {fileID: 0}
    - target: {fileID: 553858045343083173, guid: 0c0b603d87f544f2993d499ff94f5c98,
        type: 3}
      propertyPath: m_LocalEulerAnglesHint.x
      value: 0
      objectReference: {fileID: 0}
    - target: {fileID: 553858045343083173, guid: 0c0b603d87f544f2993d499ff94f5c98,
        type: 3}
      propertyPath: m_LocalEulerAnglesHint.y
      value: 0
      objectReference: {fileID: 0}
    - target: {fileID: 553858045343083173, guid: 0c0b603d87f544f2993d499ff94f5c98,
        type: 3}
      propertyPath: m_LocalEulerAnglesHint.z
      value: 0
      objectReference: {fileID: 0}
    - target: {fileID: 2367173766825609923, guid: 0c0b603d87f544f2993d499ff94f5c98,
        type: 3}
      propertyPath: m_audioClip
      value: 
      objectReference: {fileID: 0}
    - target: {fileID: 2367173766825609923, guid: 0c0b603d87f544f2993d499ff94f5c98,
        type: 3}
      propertyPath: OutputAudioMixerGroup
      value: 
      objectReference: {fileID: 243970761833285638, guid: f8550e5926b7482448d5d70517f1538c,
        type: 2}
    - target: {fileID: 7257401447826573907, guid: 0c0b603d87f544f2993d499ff94f5c98,
        type: 3}
      propertyPath: type
      value: 6
      objectReference: {fileID: 0}
    - target: {fileID: 7257401447826573907, guid: 0c0b603d87f544f2993d499ff94f5c98,
        type: 3}
      propertyPath: sequencer
      value: 
      objectReference: {fileID: 3993096730249581500}
    - target: {fileID: 8182506251150852981, guid: 0c0b603d87f544f2993d499ff94f5c98,
        type: 3}
      propertyPath: scrollPosition.y
      value: 895
      objectReference: {fileID: 0}
    - target: {fileID: 8182506251150852981, guid: 0c0b603d87f544f2993d499ff94f5c98,
        type: 3}
      propertyPath: channel
      value: 6
      objectReference: {fileID: 0}
    m_RemovedComponents: []
  m_SourcePrefab: {fileID: 100100000, guid: 0c0b603d87f544f2993d499ff94f5c98, type: 3}
--- !u!114 &3993096730249581500 stripped
MonoBehaviour:
  m_CorrespondingSourceObject: {fileID: 8182506251150852981, guid: 0c0b603d87f544f2993d499ff94f5c98,
    type: 3}
  m_PrefabInstance: {fileID: 5108293934666109129}
  m_PrefabAsset: {fileID: 0}
  m_GameObject: {fileID: 0}
  m_Enabled: 1
  m_EditorHideFlags: 0
  m_Script: {fileID: 11500000, guid: 03c2100a494de423e9975762c775cfac, type: 3}
  m_Name: 
  m_EditorClassIdentifier: 
